{
    "activityId": "2021180300000002",
    "name": "Friday Training 2",
    "description": "Small training",
    "distance": 1600,
    "duration": 917,
    "avgSpeed": 1.74,
	"createdDate": "2021-03-19T11:34:36.397+00:00"
}